t,pred,true
-4.0,-0.08175492191724115,-3.8981718325193755e-17
-3.919191919191919,-0.08175492191724114,-0.020397798541945587
-3.8383838383838382,-0.08175492191724114,-0.04031937248783161
-3.757575757575758,-0.08175492191724114,-0.05845762953942655
-3.676767676767677,-0.05689405686784281,-0.07356352880377899
-3.595959595959596,-0.05689405686784281,-0.08452676279573113
-3.515151515151515,-0.06366587153830731,-0.09045110791884156
-3.4343434343434343,-0.022390280859018737,-0.09071966773486224
-3.3535353535353534,0.0032639206926551693,-0.08504567456412637
-3.2727272727272725,0.0032639206926551693,-0.07350522697104646
-3.191919191919192,-0.005487267427078498,-0.056549288961486976
-3.111111111111111,-0.01889037467951145,-0.03499341200182195
-3.0303030303030303,0.04082779014785791,-0.009984901847327851
-2.9494949494949494,0.04851534134391765,0.017051531611460852
-2.8686868686868685,0.05257972099369414,0.04448730688801305
-2.787878787878788,0.05257972099369413,0.0705791505006865
-2.7070707070707067,0.12273693791679587,0.0935693553283155
-2.6262626262626263,0.10588724790922983,0.11179174825914784
-2.5454545454545454,0.11549841694938577,0.12377748055647672
-2.4646464646464645,0.12660172629994637,0.1283545583699417
-2.3838383838383836,0.14778144691295275,0.12473517546144892
-2.3030303030303028,0.11517003868274109,0.11258539596462419
-2.2222222222222223,0.08000213968495745,0.09207254289585291
-2.141414141414141,0.045627876518157896,0.06388674049716098
-2.0606060606060606,0.0456278765181579,0.02923438070194994
-1.9797979797979797,0.0456278765181579,-0.010197232673846484
-1.8989898989898988,-0.00638562136431,-0.05230324323402314
-1.818181818181818,-0.16743196110212827,-0.09465022438883168
-1.737373737373737,-0.17346062083615987,-0.13458693322243767
-1.6565656565656566,-0.24188592789962277,-0.16937168694961346
-1.5757575757575757,-0.29736871035739554,-0.19631016500519627
-1.4949494949494948,-0.29736871035739554,-0.21289670377041103
-1.414141414141414,-0.29393166301417256,-0.2169517735088934
-1.333333333333333,-0.2249853333326757,-0.20674833578317192
-1.2525252525252522,-0.1697783027265584,-0.18112018110459843
-1.1717171717171713,-0.17515526824299454,-0.13954612597107577
-1.0909090909090908,-0.16131696906145565,-0.08220506992725843
-1.01010101010101,-0.009219153970809683,-0.009998321751610412
-0.9292929292929291,0.07491302339065528,0.07546277218501142
-0.8484848484848482,0.2274012312934314,0.17190410911627638
-0.7676767676767673,0.35900248739291996,0.2764694381823275
-0.6868686868686864,0.35900248739291996,0.3858309757531781
-0.606060606060606,0.5905651337406925,0.4963251200302811
-0.5252525252525251,0.620634658122788,0.6041070057159245
-0.4444444444444442,0.6987539782195181,0.7053165984920191
-0.3636363636363633,0.7847061144594654,0.796248356503686
-0.28282828282828243,0.8642948954279974,0.8735162206555506
-0.20202020202020154,0.8820554902708926,0.934205854303506
-0.1212121212121211,0.9441415092888992,0.9760066301702228
-0.04040404040404022,0.9687137072405818,0.9973168298474766
0.040404040404040664,0.97590505040929,0.9973168298474766
0.12121212121212199,0.9655400512340595,0.9760066301702224
0.20202020202020243,0.8900082125890033,0.9342058543035054
0.2828282828282829,0.8660705140425542,0.8735162206555502
0.3636363636363642,0.7946206093616578,0.7962483565036851
0.44444444444444464,0.7946206093616578,0.7053165984920186
0.525252525252526,0.5408328050721577,0.6041070057159234
0.6060606060606064,0.4280864727977365,0.49632512003028056
0.6868686868686869,0.33012029813368027,0.38583097575317754
0.7676767676767682,0.29614755351113,0.2764694381823262
0.8484848484848486,0.19176030300515662,0.17190410911627585
0.92929292929293,0.133655411134038,0.07546277218501045
1.0101010101010104,0.07583491400831098,-0.009998321751610828
1.0909090909090917,-0.03531304597689389,-0.08220506992725911
1.1717171717171722,-0.035313045976893886,-0.13954612597107635
1.2525252525252526,-0.1701660442882076,-0.18112018110459863
1.333333333333334,-0.17412354468186647,-0.2067483357831721
1.4141414141414144,-0.17293305628909256,-0.2169517735088934
1.4949494949494957,-0.14822742878580647,-0.2128967037704109
1.5757575757575761,-0.1476959078886862,-0.1963101650051961
1.6565656565656575,-0.1457422502256825,-0.16937168694961313
1.737373737373738,-0.11270943437051527,-0.13458693322243725
1.8181818181818183,-0.057113192880269656,-0.09465022438883153
1.8989898989898997,-0.04858286595204504,-0.0523032432340227
1.9797979797979801,-0.04858286595204504,-0.010197232673846196
2.0606060606060614,-0.013051453994134215,0.029234380701950335
2.141414141414142,0.01501104737760297,0.06388674049716131
2.2222222222222223,0.031424670124543336,0.09207254289585291
2.3030303030303036,0.031424670124543336,0.11258539596462437
2.383838383838384,0.07065707170226551,0.12473517546144898
2.4646464646464654,0.10963878696397161,0.1283545583699417
2.545454545454546,0.10963878696397161,0.12377748055647667
2.626262626262627,0.09455440273987879,0.11179174825914762
2.7070707070707076,0.10082533683208819,0.0935693553283152
2.787878787878788,0.1008253368320882,0.0705791505006865
2.8686868686868694,0.030895857234407343,0.044487306888012675
2.94949494949495,0.0028721130283365813,0.01705153161146066
3.030303030303031,0.005155807789053215,-0.009984901847328035
3.1111111111111116,-0.012941303260604272,-0.034993412001822106
3.191919191919193,-0.023111810298101144,-0.056549288961487254
3.2727272727272734,-0.06930442820103513,-0.07350522697104656
3.353535353535354,-0.08741840429719126,-0.08504567456412637
3.434343434343435,-0.10106458241652012,-0.09071966773486229
3.5151515151515156,-0.1139714965628407,-0.09045110791884153
3.595959595959597,-0.10836532108178086,-0.084526762795731
3.6767676767676774,-0.10743061390277292,-0.07356352880377891
3.757575757575758,-0.1115006194485535,-0.05845762953942655
3.838383838383839,-0.11150061944855348,-0.04031937248783147
3.9191919191919196,-0.11150061944855348,-0.020397798541945445
4.0,-0.11150061944855348,-3.8981718325193755e-17
